<svg width="64" height="64" viewBox="0 0 64 64" fill="none" xmlns="http://www.w3.org/2000/svg">
<path d="M21.7155 16.005C20.2005 16.005 18.7475 16.6069 17.6762 17.6782C16.6049 18.7495 16.0031 20.2025 16.0031 21.7175V42.2825C16.0031 43.7975 16.6049 45.2505 17.6762 46.3218C18.7475 47.3931 20.2005 47.995 21.7155 47.995H42.2805C43.7956 47.995 45.2486 47.3931 46.3199 46.3218C47.3912 45.2505 47.993 43.7975 47.993 42.2825V25.145H30.8555C29.9465 25.145 29.0747 24.7839 28.4319 24.1411C27.7892 23.4983 27.428 22.6265 27.428 21.7175V16.005H21.7155Z" fill="#003B95"/>
<path d="M29.72 16.005V21.7175C29.72 22.0205 29.7651 22.3111 29.8455 22.5254C29.9258 22.7396 30.0348 22.86 30.1484 22.86H36.575V21.7175C36.575 20.2025 36.3493 18.7495 35.9475 17.6782C35.5458 16.6069 35.0009 16.005 34.4328 16.005H29.72Z" fill="#003B95"/>
<path d="M38.86 16.005V21.7175C38.86 22.0205 38.9202 22.3111 39.0273 22.5254C39.1344 22.7396 39.2797 22.86 39.4312 22.86H48V21.7175C48 20.2025 47.6991 18.7495 47.1634 17.6782C46.6278 16.6069 45.9013 16.005 45.1437 16.005H38.86Z" fill="#003B95"/>
</svg>
