{
  "global" : false,
  "icon" : "https://cdn2.hubspot.net/hubfs/316759/B2B%20Engine/module-icons/icon-blog-listing-title.svg",
  "host_template_types" : [ "BLOG_LISTING" ],
  "module_id" : 112849052283,
  "label" : "Blog Listing - Header",
  "is_available_for_new_content" : true
}