{
  "global" : false,
  "icon" : "https://cdn2.hubspot.net/hubfs/316759/B2B%20Engine/module-icons/icon-accordion.svg",
  "host_template_types" : [ "PAGE", "BLOG_POST", "BLOG_LISTING" ],
  "module_id" : 43427611331,
  "label" : "Accordion",
  "is_available_for_new_content" : true
}