[ {
  "id" : "social_links",
  "name" : "social_links",
  "display_width" : null,
  "label" : "Social Links",
  "required" : false,
  "locked" : false,
  "occurrence" : {
    "min" : 1,
    "max" : null,
    "sorting_label_field" : "social_account",
    "default" : 4
  },
  "children" : [ {
    "id" : "4e8ed954-f423-4469-946c-6c0308235e87",
    "name" : "icon_color",
    "display_width" : null,
    "label" : "Icon Color",
    "required" : true,
    "locked" : false,
    "display" : "select",
    "choices" : [ [ "light", "Light" ], [ "dark", "Dark" ] ],
    "multiple" : false,
    "reordering_enabled" : true,
    "preset" : null,
    "type" : "choice",
    "default" : "light"
  }, {
    "id" : "ee815d24-26c9-08d4-b6be-2189aafa4c20",
    "name" : "background_color",
    "display_width" : null,
    "label" : "Background Color",
    "required" : true,
    "locked" : false,
    "display" : "select",
    "choices" : [ [ "transparent", "Transparent" ], [ "primary", "Primary" ], [ "secondary", "Secondary" ], [ "light", "Light" ], [ "dark", "Dark" ], [ "light-gray", "Light Gray" ], [ "dark-gray", "Dark Gray" ], [ "link", "Link" ] ],
    "multiple" : false,
    "reordering_enabled" : true,
    "preset" : null,
    "type" : "choice",
    "default" : "primary"
  }, {
    "id" : "social_account",
    "name" : "social_account",
    "display_width" : null,
    "label" : "Social Account",
    "required" : true,
    "locked" : false,
    "display" : "select",
    "choices" : [ [ "facebook-f", "Facebook" ], [ "twitter", "Twitter" ], [ "instagram", "Instagram" ], [ "linkedin-in", "LinkedIn" ], [ "youtube", "YouTube" ], [ "pinterest-p", "Pinterest" ], [ "envelope", "Email" ], [ "link", "Website" ], [ "custom_icon", "Custom icon" ] ],
    "multiple" : false,
    "reordering_enabled" : true,
    "preset" : null,
    "type" : "choice",
    "default" : "facebook-f"
  }, {
    "id" : "social_links.custom_icon",
    "name" : "custom_icon",
    "display_width" : null,
    "label" : "Custom Icon",
    "required" : true,
    "locked" : false,
    "visibility" : {
      "controlling_field" : "social_account",
      "controlling_field_path" : null,
      "controlling_value_regex" : "custom_icon",
      "property" : null,
      "operator" : "EQUAL",
      "access" : null
    },
    "icon_set" : "fontawesome-5.0.10",
    "type" : "icon",
    "default" : {
      "name" : "hubspot"
    }
  }, {
    "id" : "social_links.social_link",
    "name" : "social_link",
    "display_width" : null,
    "label" : "Social Link",
    "required" : true,
    "locked" : false,
    "supported_types" : [ "EXTERNAL", "EMAIL_ADDRESS" ],
    "show_advanced_rel_options" : false,
    "type" : "link",
    "default" : {
      "no_follow" : false,
      "open_in_new_tab" : true,
      "url" : {
        "content_id" : null,
        "href" : "https://www.facebook.com",
        "type" : "EXTERNAL"
      }
    }
  } ],
  "tab" : "CONTENT",
  "expanded" : false,
  "type" : "group",
  "default" : [ {
    "icon_color" : "light",
    "background_color" : "primary",
    "social_account" : "facebook-f",
    "custom_icon" : {
      "name" : "hubspot"
    },
    "social_link" : {
      "no_follow" : false,
      "open_in_new_tab" : true,
      "url" : {
        "content_id" : null,
        "href" : "https://www.facebook.com",
        "type" : "EXTERNAL"
      }
    }
  }, {
    "icon_color" : "light",
    "background_color" : "primary",
    "social_account" : "linkedin-in",
    "custom_icon" : {
      "name" : "hubspot"
    },
    "social_link" : {
      "no_follow" : false,
      "open_in_new_tab" : true,
      "url" : {
        "content_id" : null,
        "href" : "https://www.linkedin.com",
        "type" : "EXTERNAL"
      }
    }
  }, {
    "icon_color" : "light",
    "background_color" : "primary",
    "social_account" : "twitter",
    "custom_icon" : {
      "name" : "hubspot"
    },
    "social_link" : {
      "no_follow" : false,
      "open_in_new_tab" : true,
      "url" : {
        "content_id" : null,
        "href" : "https://www.twitter.com",
        "type" : "EXTERNAL"
      }
    }
  }, {
    "icon_color" : "light",
    "background_color" : "primary",
    "social_account" : "instagram",
    "custom_icon" : {
      "name" : "hubspot"
    },
    "social_link" : {
      "no_follow" : false,
      "open_in_new_tab" : true,
      "url" : {
        "content_id" : null,
        "href" : "https://www.instagram.com",
        "type" : "EXTERNAL"
      }
    }
  } ]
}, {
  "id" : "1cc250df-345b-6a5d-2a40-9a813fab6200",
  "name" : "alignment",
  "display_width" : null,
  "label" : "Alignment",
  "required" : true,
  "locked" : false,
  "display" : "select",
  "choices" : [ [ "left", "Left" ], [ "center", "Center" ], [ "right", "Right" ] ],
  "multiple" : false,
  "reordering_enabled" : true,
  "preset" : null,
  "type" : "choice",
  "default" : "center"
}, {
  "id" : "f54b3c4d-04b2-b1bd-a975-de057a3f75a1",
  "name" : "enable_animation",
  "display_width" : null,
  "label" : "Enable Animation",
  "required" : false,
  "locked" : false,
  "display" : "checkbox",
  "type" : "boolean",
  "default" : true
}, {
  "id" : "8a0f8739-1024-0cbb-3920-ecbc643bf8c4",
  "name" : "animation_settings",
  "display_width" : null,
  "label" : "Animation Settings",
  "required" : false,
  "locked" : false,
  "visibility" : {
    "controlling_field" : "f54b3c4d-04b2-b1bd-a975-de057a3f75a1",
    "controlling_field_path" : null,
    "controlling_value_regex" : "true",
    "property" : null,
    "operator" : "EQUAL",
    "access" : null
  },
  "children" : [ {
    "id" : "a61067f1-107e-8136-b604-763d821208f2",
    "name" : "animation_type",
    "display_width" : null,
    "label" : "Animation Type",
    "required" : true,
    "locked" : false,
    "display" : "select",
    "choices" : [ [ "default", "default" ], [ "fade", "fade" ], [ "fade-up", "fade-up" ], [ "fade-down", "fade-down" ], [ "fade-left", "fade-left" ], [ "fade-right", "fade-right" ], [ "fade-up-right", "fade-up-right" ], [ "fade-up-left", "fade-up-left" ], [ "fade-down-right", "fade-down-right" ], [ "fade-down-left", "fade-down-left" ], [ "flip-up", "flip-up" ], [ "flip-down", "flip-down" ], [ "flip-left", "flip-left" ], [ "flip-right", "flip-right" ], [ "slide-up", "slide-up" ], [ "slide-down", "slide-down" ], [ "slide-left", "slide-left" ], [ "slide-right", "slide-right" ], [ "zoom-in", "zoom-in" ], [ "zoom-in-up", "zoom-in-up" ], [ "zoom-in-down", "zoom-in-down" ], [ "zoom-in-left", "zoom-in-left" ], [ "zoom-in-right", "zoom-in-right" ], [ "zoom-out", "zoom-out" ], [ "zoom-out-up", "zoom-out-up" ], [ "zoom-out-down", "zoom-out-down" ], [ "zoom-out-left", "zoom-out-left" ], [ "zoom-out-right", "zoom-out-right" ] ],
    "multiple" : false,
    "reordering_enabled" : true,
    "preset" : null,
    "type" : "choice",
    "default" : "default"
  }, {
    "id" : "51db9d55-1e2c-3f07-6316-d9be08fbf5b9",
    "name" : "animation_delay",
    "display_width" : null,
    "label" : "Animation Delay",
    "required" : true,
    "locked" : false,
    "display" : "text",
    "min" : 0,
    "max" : 3000,
    "step" : 50,
    "suffix" : "ms",
    "type" : "number",
    "default" : 150
  }, {
    "id" : "aa11df14-e8de-89ff-ef60-f1daa925a08b",
    "name" : "override_default_animation_duration",
    "display_width" : null,
    "label" : "Override Default Animation Duration",
    "required" : false,
    "locked" : false,
    "display" : "checkbox",
    "type" : "boolean",
    "default" : false
  }, {
    "id" : "31fa4009-1496-7e47-951e-09946cf464d7",
    "name" : "animation_duration",
    "display_width" : null,
    "label" : "Animation Duration",
    "required" : true,
    "locked" : false,
    "visibility" : {
      "controlling_field" : "aa11df14-e8de-89ff-ef60-f1daa925a08b",
      "controlling_field_path" : null,
      "controlling_value_regex" : "true",
      "property" : null,
      "operator" : "EQUAL",
      "access" : null
    },
    "display" : "text",
    "min" : 0,
    "max" : 3000,
    "step" : 50,
    "suffix" : "ms",
    "type" : "number",
    "default" : 600
  } ],
  "tab" : "CONTENT",
  "expanded" : false,
  "type" : "group",
  "default" : {
    "animation_type" : "default",
    "animation_delay" : 150,
    "override_default_animation_duration" : false,
    "animation_duration" : 600
  }
}, {
  "id" : "1a84ba44-f773-1c1d-44a8-af60843156eb",
  "name" : "custom_class",
  "display_width" : null,
  "label" : "Custom Class",
  "required" : false,
  "locked" : false,
  "validation_regex" : "",
  "allow_new_line" : false,
  "show_emoji_picker" : false,
  "type" : "text"
}, {
  "id" : "d1b4604d-156f-1ceb-4cc5-601bcb58f6a9",
  "name" : "custom_id",
  "display_width" : null,
  "label" : "Custom ID",
  "required" : false,
  "locked" : false,
  "validation_regex" : "",
  "allow_new_line" : false,
  "show_emoji_picker" : false,
  "type" : "text"
} ]